FIFA 21 Analysis
…
b <- str_sub(teamtime$contract, start = 3, end = 4) %>% 
  as.numeric()

Warning in str_sub(teamtime$contract, start = 3, end = 4) %>% as.numeric(): NAs
introduced by coercion

decades <- teamtime %>% 
  mutate('Years_at_club'= a-b) %>% 
  filter(c(a-b) >= 10) %>% 
  select(c(name, Years_at_club))

tibble(decades)

# A tibble: 462 × 2
   name            Years_at_club
   <chr>                   <dbl>
 1 L. Messi                   17
 2 Casemiro                   10
 3 M. Neuer                   12
 4 K. Benzema                 13
 5 Sergio Ramos               16
 6 S. Agüero                  10
 7 H. Kane                    14
 8 Sergio Busquets            15
 9 H. Lloris                  10
10 G. Chiellini               16
# … with 452 more rows
…
